<?xml version="1.0" encoding="utf-8"?>
<!-- Generator: Adobe Illustrator 19.0.0, SVG Export Plug-In . SVG Version: 6.00 Build 0)  -->
<svg version="1.1" xmlns="http://www.w3.org/2000/svg" xmlns:xlink="http://www.w3.org/1999/xlink" x="0px" y="0px"
	 viewBox="-64 156.1 481.9 481.9" style="enable-background:new -64 156.1 481.9 481.9;" xml:space="preserve">
<style type="text/css">
	.st0{fill:#E1E6E9;}
	.st1{fill:#64798A;}
	.st2{fill:#FCD462;}
	.st3{fill:#44C4A1;}
	.st4{fill:#E56353;}
	.st5{fill:#FFFFFF;}
	.st6{fill:#EBF0F3;}
	.st7{fill:#3A556A;}
	.st8{opacity:0.35;fill:#27A2DB;enable-background:new    ;}
	.st9{fill:#27A2DB;}
	.st10{font-family:'ArialRoundedMTBold';}
	.st11{font-size:48.2525px;}
</style>
<g id="Layer_1">
	<path class="st0" d="M39,253.7c-2.4,0-4.8-1.8-5.4-3.6L27,230.8c-0.6-2.4-3-3.6-5.4-3.6h-59c-2.4,0-4.8,1.8-5.4,3.6l-6.6,19.3
		c-0.6,2.4-3,3.6-5.4,3.6h-9v330.7c0,6.6,5.4,11.4,11.4,11.4h458.4c6.6,0,11.4-5.4,11.4-11.4V253.7H39z"/>
	<path class="st1" d="M406.4,156.1h-459c-6.6,0-11.4,5.4-11.4,11.4v68.7h481.9v-68.7C417.9,161.5,412.5,156.1,406.4,156.1z"/>
	<circle class="st2" cx="294.4" cy="196.5" r="13.3"/>
	<circle class="st3" cx="341.4" cy="196.5" r="13.3"/>
	<circle class="st4" cx="388.4" cy="196.5" r="13.3"/>
	<path class="st5" d="M39,236.2c-2.4,0-4.8-1.8-5.4-3.6L27,213.3c-0.6-2.4-3-3.6-5.4-3.6h-59c-2.4,0-4.8,1.8-5.4,3.6l-6.6,19.3
		c-0.6,2.4-3,3.6-5.4,3.6h-9v330.7c0,6.6,5.4,11.4,11.4,11.4h458.4c6.6,0,11.4-5.4,11.4-11.4V236.2H39z"/>
	<path class="st6" d="M41.4,227.8h81.9l-5.4-14.5c-0.6-2.4-3-3.6-5.4-3.6H34.8c0,0.6,0.6,0.6,0.6,1.2L41.4,227.8z"/>
	<path class="st7" d="M176.9,333.2c-50,0-90.4,40.4-90.4,90.4s40.4,90.4,90.4,90.4s90.4-40.4,90.4-90.4
		C267.3,373.6,226.9,333.2,176.9,333.2z M176.9,506.7c-45.8,0-83.1-37.3-83.1-83.1s37.3-83.1,83.1-83.1s83.1,37.3,83.1,83.1
		S222.7,506.7,176.9,506.7z"/>
	<path class="st8" d="M176.6,340.4c-45.8,0-83.1,37.3-83.1,83.1s37.3,83.1,83.1,83.1s83.1-37.3,83.1-83.1S222.4,340.4,176.6,340.4z"
		/>
	<path class="st1" d="M290.2,423.6c0-62.6-50.6-113.2-113.2-113.2S63.7,360.9,63.7,423.6c0,56,41,103,95.2,111.4v34.3H195V535
		C248.6,526.6,290.2,479.6,290.2,423.6z M176.9,513.9c-50,0-90.4-40.4-90.4-90.4s40.4-90.4,90.4-90.4s90.4,40.4,90.4,90.4
		S226.9,513.9,176.9,513.9z"/>
	<path class="st7" d="M144.4,559.7V638h65.7v-78.3C209.5,550.1,144.4,550.1,144.4,559.7z"/>
	<rect x="144.4" y="568.7" class="st2" width="65.7" height="12"/>
	<rect x="-37.5" y="301.9" class="st4" width="37.3" height="17.5"/>
	<rect x="20.3" y="301.9" class="st2" width="37.3" height="17.5"/>
	<rect x="-37.5" y="355.5" class="st1" width="37.3" height="17.5"/>
	<g>
		<rect x="20.3" y="355.5" class="st3" width="37.3" height="17.5"/>
		<rect x="-37.5" y="408.5" class="st3" width="37.3" height="17.5"/>
	</g>
	<rect x="20.3" y="408.5" class="st2" width="37.3" height="17.5"/>
	<rect x="-37.5" y="462.1" class="st4" width="37.3" height="17.5"/>
	<rect x="20.3" y="462.1" class="st3" width="37.3" height="17.5"/>
	<rect x="-37.5" y="515.7" class="st1" width="37.3" height="17.5"/>
	<g>
		<rect x="20.3" y="515.7" class="st4" width="37.3" height="17.5"/>
		<rect x="296.2" y="301.9" class="st4" width="37.3" height="17.5"/>
	</g>
	<g>
		<rect x="354" y="301.9" class="st9" width="37.3" height="17.5"/>
		<rect x="296.2" y="355.5" class="st9" width="37.3" height="17.5"/>
	</g>
	<g>
		<rect x="354" y="355.5" class="st1" width="37.3" height="17.5"/>
		<rect x="296.2" y="408.5" class="st1" width="37.3" height="17.5"/>
	</g>
	<rect x="354" y="408.5" class="st4" width="37.3" height="17.5"/>
	<rect x="296.2" y="462.1" class="st3" width="37.3" height="17.5"/>
	<rect x="354" y="462.1" class="st9" width="37.3" height="17.5"/>
	<rect x="296.2" y="515.7" class="st4" width="37.3" height="17.5"/>
	<rect x="354" y="515.7" class="st1" width="37.3" height="17.5"/>
</g>
<g id="Layer_2">
	<text transform="matrix(1 0 0 1 106.1971 437.0607)"><tspan x="0" y="0" class="st4 st10 st11">W</tspan><tspan x="45.3" y="0" class="st2 st10 st11">W</tspan><tspan x="90.5" y="0" class="st3 st10 st11">W</tspan><tspan x="135.8" y="0" class="st9 st10 st11">.</tspan></text>
</g>
</svg>
