<?xml version="1.0" encoding="utf-8"?>
<!-- Generator: Adobe Illustrator 19.0.0, SVG Export Plug-In . SVG Version: 6.00 Build 0)  -->
<svg version="1.1" id="Layer_1" xmlns="http://www.w3.org/2000/svg" xmlns:xlink="http://www.w3.org/1999/xlink" x="0px" y="0px"
	 viewBox="-259 133 504 504" style="enable-background:new -259 133 504 504;" xml:space="preserve">
<style type="text/css">
	.st0{fill:#FFFFFF;}
	.st1{fill:#ACB3BA;}
	.st2{fill:#324A5E;}
	.st3{fill:#FF7058;}
	.st4{fill:#F9B54C;}
	.st5{fill:#2C9984;}
	.st6{fill:#54C0EB;}
	.st7{fill:#4CDBC4;}
	.st8{fill:#CED5E0;}
</style>
<polygon class="st0" points="156.8,133 -31.6,133 -31.6,470.9 245,470.9 245,221.2 "/>
<polygon class="st1" points="156.8,221.2 245,221.2 156.8,133 "/>
<rect x="5" y="172.5" class="st2" width="115" height="12.6"/>
<rect x="5" y="208.5" class="st1" width="115" height="12.6"/>
<rect x="4.2" y="261.8" class="st3" width="204.8" height="41.4"/>
<rect x="4.2" y="328.8" class="st4" width="60.2" height="41.4"/>
<rect x="76.5" y="328.8" class="st5" width="60.2" height="41.4"/>
<rect x="148.8" y="328.8" class="st1" width="59.2" height="41.4"/>
<rect x="4.2" y="395.9" class="st6" width="102.4" height="41.4"/>
<rect x="119.9" y="400.2" class="st1" width="88.2" height="9.8"/>
<rect x="119.9" y="423.4" class="st7" width="88.2" height="9.8"/>
<path class="st0" d="M82.4,637h-338.9c-1.4,0-2.6-1.1-2.6-2.6V493.8c0-1.4,1.1-2.6,2.6-2.6H82.4c1.4,0,2.6,1.1,2.6,2.6v140.6
	C84.8,635.9,83.7,637,82.4,637z"/>
<g>
	<rect x="-241.2" y="503.9" class="st1" width="29" height="15.7"/>
	<rect x="-194.7" y="503.9" class="st1" width="29" height="15.7"/>
	<rect x="-148.1" y="503.9" class="st1" width="29" height="15.7"/>
	<rect x="-101.6" y="503.9" class="st1" width="29" height="15.7"/>
	<rect x="-55" y="503.9" class="st1" width="29" height="15.7"/>
	<rect x="-8.4" y="503.9" class="st1" width="29" height="15.7"/>
	<rect x="38.1" y="503.9" class="st1" width="29" height="15.7"/>
</g>
<g>
	<rect x="-241.2" y="530.3" class="st8" width="27.7" height="23"/>
	<rect x="-201.1" y="530.3" class="st8" width="27.7" height="23"/>
	<rect x="-161.1" y="530.3" class="st8" width="27.7" height="23"/>
	<rect x="-120.9" y="530.3" class="st8" width="27.7" height="23"/>
	<rect x="-80.8" y="530.3" class="st8" width="27.7" height="23"/>
	<rect x="-40.8" y="530.3" class="st8" width="27.7" height="23"/>
	<rect x="-0.6" y="530.3" class="st8" width="27.7" height="23"/>
	<rect x="39.6" y="530.3" class="st8" width="27.7" height="23"/>
	<rect x="-241.2" y="566" class="st8" width="27.7" height="23"/>
	<rect x="-201.1" y="566" class="st8" width="27.7" height="23"/>
	<rect x="-161.1" y="566" class="st8" width="27.7" height="23"/>
	<rect x="-120.9" y="566" class="st8" width="27.7" height="23"/>
	<rect x="-80.8" y="566" class="st8" width="27.7" height="23"/>
	<rect x="-40.8" y="566" class="st8" width="27.7" height="23"/>
	<rect x="-0.6" y="566" class="st8" width="27.7" height="23"/>
	<rect x="39.6" y="566" class="st8" width="27.7" height="23"/>
</g>
<rect x="-241.2" y="601.6" class="st5" width="27.7" height="23"/>
<rect x="-201.1" y="601.6" class="st8" width="27.7" height="23"/>
<rect x="-161.1" y="601.6" class="st3" width="148" height="23"/>
<rect x="-0.6" y="601.6" class="st8" width="27.7" height="23"/>
<rect x="39.6" y="601.6" class="st2" width="27.7" height="23"/>
<path class="st0" d="M-77.6,491.4h-18.9v-19.2c0-9.1-7.4-16.5-16.5-16.5h-69.9c-22.2,0-40.2-18.1-40.2-40.2
	c0-22.2,18.1-40.2,40.2-40.2h89.9c9.1,0,16.5-7.4,16.5-16.5c0-9.1-7.4-16.5-16.5-16.5h-85.4c-23.8,0-43.4-19.4-43.4-43.4
	s19.4-43.4,43.4-43.4h146.7v18.9h-146.7c-13.4,0-24.5,10.9-24.5,24.5c0,13.6,10.9,24.5,24.5,24.5h85.4c19.5,0,35.4,15.8,35.4,35.4
	s-15.8,35.4-35.4,35.4h-89.9c-11.7,0-21.3,9.6-21.3,21.3c0,11.7,9.6,21.3,21.3,21.3h69.9c19.5,0,35.4,15.8,35.4,35.4L-77.6,491.4
	L-77.6,491.4z"/>
</svg>
